{
	"id": "da5d7139-6e05-4976-9296-f3874e0e87a0",
	"name": "transfers_pix",
	"values": [
		{
			"key": "remetenteUsername",
			"value": "58761871001",
			"type": "default",
			"enabled": true
		},
		{
			"key": "baseUrl",
			"value": "https://dbcbank-questers-back-vs2.onrender.com/dbc-bank/v1",
			"type": "default",
			"enabled": true
		},
		{
			"key": "destinatarioUsername",
			"value": "62819514090",
			"type": "default",
			"enabled": true
		},
		{
			"key": "destinatarioPass",
			"value": "@Teste123",
			"type": "default",
			"enabled": true
		},
		{
			"key": "rementePass",
			"value": "@Teste123",
			"type": "default",
			"enabled": true
		},
		{
			"key": "tokenExpirado",
			"value": "eyJhbGciOiJIUzI1NiIsInR5cCI6IkpXVCJ9.eyJpc3MiOiJkYmMtYmFuayIsImN1c3RvbWVySWQiOjIzMzQsImFjY291bnRJZCI6MjMzNCwic3ViIjoiNTg3NjE4NzEwMDEiLCJpYXQiOjE3MTM2Njk5MTIsImV4cCI6MTcxMzY3MjYxMn0.yHLNpz5kPZC86uJGfV2wPuJlbhqOv7_5bq2ET_gOyV0",
			"type": "default",
			"enabled": true
		},
		{
			"key": "remetenteToken",
			"value": "",
			"type": "any",
			"enabled": true
		},
		{
			"key": "destinatarioToken",
			"value": "",
			"type": "any",
			"enabled": true
		}
	],
	"_postman_variable_scope": "environment",
	"_postman_exported_at": "2024-04-22T18:35:34.723Z",
	"_postman_exported_using": "Postman/10.24.22"
}